%YAML 1.1
%TAG !u! tag:unity3d.com,2011:
--- !u!74 &7400000
AnimationClip:
  m_ObjectHideFlags: 0
  m_PrefabParentObject: {fileID: 0}
  m_PrefabInternal: {fileID: 0}
  m_Name: BallShootingtutorial2
  serializedVersion: 6
  m_Legacy: 0
  m_Compressed: 0
  m_UseHighQualityCurve: 1
  m_RotationCurves: []
  m_CompressedRotationCurves: []
  m_EulerCurves: []
  m_PositionCurves: []
  m_ScaleCurves:
  - curve:
      serializedVersion: 2
      m_Curve:
      - serializedVersion: 3
        time: 0
        value: {x: 0.5, y: 0.5, z: 0.5}
        inSlope: {x: 0, y: 0, z: 0}
        outSlope: {x: 0, y: 0, z: 0}
        tangentMode: 0
        weightedMode: 0
        inWeight: {x: 0.33333334, y: 0.33333334, z: 0.33333334}
        outWeight: {x: 0.33333334, y: 0.33333334, z: 0.33333334}
      - serializedVersion: 3
        time: 0.5
        value: {x: 0.5, y: 0.5, z: 0.5}
        inSlope: {x: 0, y: 0, z: 0}
        outSlope: {x: 0, y: 0, z: 0}
        tangentMode: 0
        weightedMode: 0
        inWeight: {x: 0.33333334, y: 0.33333334, z: 0.33333334}
        outWeight: {x: 0.33333334, y: 0.33333334, z: 0.33333334}
      - serializedVersion: 3
        time: 1
        value: {x: 0.5, y: 0.5, z: 0.5}
        inSlope: {x: 0, y: 0, z: 0}
        outSlope: {x: 0, y: 0, z: 0}
        tangentMode: 0
        weightedMode: 0
        inWeight: {x: 0.33333334, y: 0.33333334, z: 0.33333334}
        outWeight: {x: 0.33333334, y: 0.33333334, z: 0.33333334}
      - serializedVersion: 3
        time: 1.5
        value: {x: 0.5, y: 0.5, z: 0.5}
        inSlope: {x: 0, y: 0, z: 0}
        outSlope: {x: 0, y: 0, z: 0}
        tangentMode: 0
        weightedMode: 0
        inWeight: {x: 0.33333334, y: 0.33333334, z: 0.33333334}
        outWeight: {x: 0.33333334, y: 0.33333334, z: 0.33333334}
      m_PreInfinity: 2
      m_PostInfinity: 2
      m_RotationOrder: 4
    path: Circle
  m_FloatCurves:
  - curve:
      serializedVersion: 2
      m_Curve:
      - serializedVersion: 3
        time: 0
        value: 170
        inSlope: -832
        outSlope: 6.7159095
        tangentMode: 1
        weightedMode: 0
        inWeight: 0.33333334
        outWeight: 1
      - serializedVersion: 3
        time: 0.5
        value: -983
        inSlope: 9.143174
        outSlope: -7.27458
        tangentMode: 1
        weightedMode: 0
        inWeight: 1
        outWeight: 1
      - serializedVersion: 3
        time: 1
        value: 170
        inSlope: 2306
        outSlope: 2320
        tangentMode: 1
        weightedMode: 0
        inWeight: 0.33333334
        outWeight: 0.33333334
      - serializedVersion: 3
        time: 1.5
        value: 1330
        inSlope: 4.612572
        outSlope: 2306
        tangentMode: 1
        weightedMode: 0
        inWeight: 1
        outWeight: 0.33333334
      m_PreInfinity: 2
      m_PostInfinity: 2
      m_RotationOrder: 4
    attribute: m_AnchoredPosition.x
    path: Finger
    classID: 224
    script: {fileID: 0}
  - curve:
      serializedVersion: 2
      m_Curve:
      - serializedVersion: 3
        time: 0
        value: 621
        inSlope: -190.31345
        outSlope: 9.307248
        tangentMode: 1
        weightedMode: 0
        inWeight: 0.06754732
        outWeight: 1
      - serializedVersion: 3
        time: 0.5
        value: -255
        inSlope: -6.4276457
        outSlope: 6.738133
        tangentMode: 1
        weightedMode: 0
        inWeight: 1
        outWeight: 1
      - serializedVersion: 3
        time: 1
        value: 621
        inSlope: 12.573303
        outSlope: 12.113335
        tangentMode: 1
        weightedMode: 0
        inWeight: 1
        outWeight: 1
      - serializedVersion: 3
        time: 1.5
        value: -212
        inSlope: -7.1096697
        outSlope: 0
        tangentMode: 1
        weightedMode: 0
        inWeight: 1
        outWeight: 0.33333334
      m_PreInfinity: 2
      m_PostInfinity: 2
      m_RotationOrder: 4
    attribute: m_AnchoredPosition.y
    path: Finger
    classID: 224
    script: {fileID: 0}
  - curve:
      serializedVersion: 2
      m_Curve:
      - serializedVersion: 3
        time: 0
        value: 0.000030518
        inSlope: 0
        outSlope: -1.2561799
        tangentMode: 1
        weightedMode: 0
        inWeight: 0.33333334
        outWeight: 1
      - serializedVersion: 3
        time: 0.5
        value: -1153
        inSlope: 2.8041828
        outSlope: -3.2119994
        tangentMode: 1
        weightedMode: 0
        inWeight: 1
        outWeight: 1
      - serializedVersion: 3
        time: 1
        value: 0.000030518
        inSlope: 2306
        outSlope: 2306
        tangentMode: 1
        weightedMode: 0
        inWeight: 0.33333334
        outWeight: 0.33333334
      - serializedVersion: 3
        time: 1.5
        value: 1153
        inSlope: 0.9841068
        outSlope: 0
        tangentMode: 1
        weightedMode: 0
        inWeight: 1
        outWeight: 0.33333334
      m_PreInfinity: 2
      m_PostInfinity: 2
      m_RotationOrder: 4
    attribute: m_AnchoredPosition.x
    path: Circle
    classID: 224
    script: {fileID: 0}
  - curve:
      serializedVersion: 2
      m_Curve:
      - serializedVersion: 3
        time: 0
        value: 902
        inSlope: 0
        outSlope: -2.628313
        tangentMode: 1
        weightedMode: 0
        inWeight: 0.33333334
        outWeight: 1
      - serializedVersion: 3
        time: 0.5
        value: 25.999512
        inSlope: 7.968895
        outSlope: 2.953381
        tangentMode: 1
        weightedMode: 0
        inWeight: 1
        outWeight: 1
      - serializedVersion: 3
        time: 1
        value: 902
        inSlope: -8.794697
        outSlope: -2.1963866
        tangentMode: 1
        weightedMode: 0
        inWeight: 1
        outWeight: 1
      - serializedVersion: 3
        time: 1.5
        value: 25.999512
        inSlope: -3.175806
        outSlope: 0
        tangentMode: 1
        weightedMode: 0
        inWeight: 1
        outWeight: 0.33333334
      m_PreInfinity: 2
      m_PostInfinity: 2
      m_RotationOrder: 4
    attribute: m_AnchoredPosition.y
    path: Circle
    classID: 224
    script: {fileID: 0}
  m_PPtrCurves: []
  m_SampleRate: 60
  m_WrapMode: 0
  m_Bounds:
    m_Center: {x: 0, y: 0, z: 0}
    m_Extent: {x: 0, y: 0, z: 0}
  m_ClipBindingConstant:
    genericBindings:
    - serializedVersion: 2
      path: 3422654345
      attribute: 1460864421
      script: {fileID: 0}
      typeID: 224
      customType: 28
      isPPtrCurve: 0
    - serializedVersion: 2
      path: 3422654345
      attribute: 538195251
      script: {fileID: 0}
      typeID: 224
      customType: 28
      isPPtrCurve: 0
    - serializedVersion: 2
      path: 3541786703
      attribute: 1460864421
      script: {fileID: 0}
      typeID: 224
      customType: 28
      isPPtrCurve: 0
    - serializedVersion: 2
      path: 3541786703
      attribute: 538195251
      script: {fileID: 0}
      typeID: 224
      customType: 28
      isPPtrCurve: 0
    - serializedVersion: 2
      path: 3541786703
      attribute: 3
      script: {fileID: 0}
      typeID: 4
      customType: 0
      isPPtrCurve: 0
    pptrCurveMapping: []
  m_AnimationClipSettings:
    serializedVersion: 2
    m_AdditiveReferencePoseClip: {fileID: 0}
    m_AdditiveReferencePoseTime: 0
    m_StartTime: 0
    m_StopTime: 1.5
    m_OrientationOffsetY: 0
    m_Level: 0
    m_CycleOffset: 0
    m_HasAdditiveReferencePose: 0
    m_LoopTime: 0
    m_LoopBlend: 0
    m_LoopBlendOrientation: 0
    m_LoopBlendPositionY: 0
    m_LoopBlendPositionXZ: 0
    m_KeepOriginalOrientation: 0
    m_KeepOriginalPositionY: 1
    m_KeepOriginalPositionXZ: 0
    m_HeightFromFeet: 0
    m_Mirror: 0
  m_EditorCurves:
  - curve:
      serializedVersion: 2
      m_Curve:
      - serializedVersion: 3
        time: 0
        value: 0.5
        inSlope: 0
        outSlope: 0
        tangentMode: 136
        weightedMode: 0
        inWeight: 0.33333334
        outWeight: 0.33333334
      - serializedVersion: 3
        time: 0.5
        value: 0.5
        inSlope: 0
        outSlope: 0
        tangentMode: 136
        weightedMode: 0
        inWeight: 0.33333334
        outWeight: 0.33333334
      - serializedVersion: 3
        time: 1
        value: 0.5
        inSlope: 0
        outSlope: 0
        tangentMode: 136
        weightedMode: 0
        inWeight: 0.33333334
        outWeight: 0.33333334
      - serializedVersion: 3
        time: 1.5
        value: 0.5
        inSlope: 0
        outSlope: 0
        tangentMode: 136
        weightedMode: 0
        inWeight: 0.33333334
        outWeight: 0.33333334
      m_PreInfinity: 2
      m_PostInfinity: 2
      m_RotationOrder: 4
    attribute: m_LocalScale.x
    path: Circle
    classID: 224
    script: {fileID: 0}
  - curve:
      serializedVersion: 2
      m_Curve:
      - serializedVersion: 3
        time: 0
        value: 0.5
        inSlope: 0
        outSlope: 0
        tangentMode: 136
        weightedMode: 0
        inWeight: 0.33333334
        outWeight: 0.33333334
      - serializedVersion: 3
        time: 0.5
        value: 0.5
        inSlope: 0
        outSlope: 0
        tangentMode: 136
        weightedMode: 0
        inWeight: 0.33333334
        outWeight: 0.33333334
      - serializedVersion: 3
        time: 1
        value: 0.5
        inSlope: 0
        outSlope: 0
        tangentMode: 136
        weightedMode: 0
        inWeight: 0.33333334
        outWeight: 0.33333334
      - serializedVersion: 3
        time: 1.5
        value: 0.5
        inSlope: 0
        outSlope: 0
        tangentMode: 136
        weightedMode: 0
        inWeight: 0.33333334
        outWeight: 0.33333334
      m_PreInfinity: 2
      m_PostInfinity: 2
      m_RotationOrder: 4
    attribute: m_LocalScale.y
    path: Circle
    classID: 224
    script: {fileID: 0}
  - curve:
      serializedVersion: 2
      m_Curve:
      - serializedVersion: 3
        time: 0
        value: 0.5
        inSlope: 0
        outSlope: 0
        tangentMode: 136
        weightedMode: 0
        inWeight: 0.33333334
        outWeight: 0.33333334
      - serializedVersion: 3
        time: 0.5
        value: 0.5
        inSlope: 0
        outSlope: 0
        tangentMode: 136
        weightedMode: 0
        inWeight: 0.33333334
        outWeight: 0.33333334
      - serializedVersion: 3
        time: 1
        value: 0.5
        inSlope: 0
        outSlope: 0
        tangentMode: 136
        weightedMode: 0
        inWeight: 0.33333334
        outWeight: 0.33333334
      - serializedVersion: 3
        time: 1.5
        value: 0.5
        inSlope: 0
        outSlope: 0
        tangentMode: 136
        weightedMode: 0
        inWeight: 0.33333334
        outWeight: 0.33333334
      m_PreInfinity: 2
      m_PostInfinity: 2
      m_RotationOrder: 4
    attribute: m_LocalScale.z
    path: Circle
    classID: 224
    script: {fileID: 0}
  - curve:
      serializedVersion: 2
      m_Curve:
      - serializedVersion: 3
        time: 0
        value: 170
        inSlope: -832
        outSlope: 6.7159095
        tangentMode: 1
        weightedMode: 0
        inWeight: 0.33333334
        outWeight: 1
      - serializedVersion: 3
        time: 0.5
        value: -983
        inSlope: 9.143174
        outSlope: -7.27458
        tangentMode: 1
        weightedMode: 0
        inWeight: 1
        outWeight: 1
      - serializedVersion: 3
        time: 1
        value: 170
        inSlope: 2306
        outSlope: 2320
        tangentMode: 1
        weightedMode: 0
        inWeight: 0.33333334
        outWeight: 0.33333334
      - serializedVersion: 3
        time: 1.5
        value: 1330
        inSlope: 4.612572
        outSlope: 2306
        tangentMode: 1
        weightedMode: 0
        inWeight: 1
        outWeight: 0.33333334
      m_PreInfinity: 2
      m_PostInfinity: 2
      m_RotationOrder: 4
    attribute: m_AnchoredPosition.x
    path: Finger
    classID: 224
    script: {fileID: 0}
  - curve:
      serializedVersion: 2
      m_Curve:
      - serializedVersion: 3
        time: 0
        value: 621
        inSlope: -190.31345
        outSlope: 9.307248
        tangentMode: 1
        weightedMode: 0
        inWeight: 0.06754732
        outWeight: 1
      - serializedVersion: 3
        time: 0.5
        value: -255
        inSlope: -6.4276457
        outSlope: 6.738133
        tangentMode: 1
        weightedMode: 0
        inWeight: 1
        outWeight: 1
      - serializedVersion: 3
        time: 1
        value: 621
        inSlope: 12.573303
        outSlope: 12.113335
        tangentMode: 1
        weightedMode: 0
        inWeight: 1
        outWeight: 1
      - serializedVersion: 3
        time: 1.5
        value: -212
        inSlope: -7.1096697
        outSlope: 0
        tangentMode: 1
        weightedMode: 0
        inWeight: 1
        outWeight: 0.33333334
      m_PreInfinity: 2
      m_PostInfinity: 2
      m_RotationOrder: 4
    attribute: m_AnchoredPosition.y
    path: Finger
    classID: 224
    script: {fileID: 0}
  - curve:
      serializedVersion: 2
      m_Curve:
      - serializedVersion: 3
        time: 0
        value: 0.000030518
        inSlope: 0
        outSlope: -1.2561799
        tangentMode: 1
        weightedMode: 0
        inWeight: 0.33333334
        outWeight: 1
      - serializedVersion: 3
        time: 0.5
        value: -1153
        inSlope: 2.8041828
        outSlope: -3.2119994
        tangentMode: 1
        weightedMode: 0
        inWeight: 1
        outWeight: 1
      - serializedVersion: 3
        time: 1
        value: 0.000030518
        inSlope: 2306
        outSlope: 2306
        tangentMode: 1
        weightedMode: 0
        inWeight: 0.33333334
        outWeight: 0.33333334
      - serializedVersion: 3
        time: 1.5
        value: 1153
        inSlope: 0.9841068
        outSlope: 0
        tangentMode: 1
        weightedMode: 0
        inWeight: 1
        outWeight: 0.33333334
      m_PreInfinity: 2
      m_PostInfinity: 2
      m_RotationOrder: 4
    attribute: m_AnchoredPosition.x
    path: Circle
    classID: 224
    script: {fileID: 0}
  - curve:
      serializedVersion: 2
      m_Curve:
      - serializedVersion: 3
        time: 0
        value: 902
        inSlope: 0
        outSlope: -2.628313
        tangentMode: 1
        weightedMode: 0
        inWeight: 0.33333334
        outWeight: 1
      - serializedVersion: 3
        time: 0.5
        value: 25.999512
        inSlope: 7.968895
        outSlope: 2.953381
        tangentMode: 1
        weightedMode: 0
        inWeight: 1
        outWeight: 1
      - serializedVersion: 3
        time: 1
        value: 902
        inSlope: -8.794697
        outSlope: -2.1963866
        tangentMode: 1
        weightedMode: 0
        inWeight: 1
        outWeight: 1
      - serializedVersion: 3
        time: 1.5
        value: 25.999512
        inSlope: -3.175806
        outSlope: 0
        tangentMode: 1
        weightedMode: 0
        inWeight: 1
        outWeight: 0.33333334
      m_PreInfinity: 2
      m_PostInfinity: 2
      m_RotationOrder: 4
    attribute: m_AnchoredPosition.y
    path: Circle
    classID: 224
    script: {fileID: 0}
  m_EulerEditorCurves: []
  m_HasGenericRootTransform: 0
  m_HasMotionFloatCurves: 0
  m_GenerateMotionCurves: 0
  m_Events: []
