%YAML 1.1
%TAG !u! tag:unity3d.com,2011:
--- !u!78 &1
TagManager:
  serializedVersion: 2
  tags:
  - LevelRoot
  - WallCollider
  - WalkingZone
  - LevelBase
  - FxTemporaire
  - Enemy
  layers:
  - Default
  - TransparentFX
  - Ignore Raycast
  - 
  - Water
  - UI
  - 
  - 
  - Ball
  - IgnoreBall
  - EffectOnUI
  - 
  - 
  - 
  - 
  - 
  - 
  - 
  - 
  - 
  - 
  - 
  - 
  - 
  - 
  - 
  - 
  - 
  - 
  - 
  - 
  - 
  m_SortingLayers:
  - name: Default
    uniqueID: 0
    locked: 0
  - name: DrevenHP
    uniqueID: 890839925
    locked: 0
  - name: Dreven
    uniqueID: 1040602443
    locked: 0
