%YAML 1.1
%TAG !u! tag:unity3d.com,2011:
--- !u!114 &11400000
MonoBehaviour:
  m_ObjectHideFlags: 0
  m_CorrespondingSourceObject: {fileID: 0}
  m_PrefabInstance: {fileID: 0}
  m_PrefabAsset: {fileID: 0}
  m_GameObject: {fileID: 0}
  m_Enabled: 1
  m_EditorHideFlags: 0
  m_Script: {fileID: 11500000, guid: 6f78192cec1344d83a177ac5e6139ab3, type: 3}
  m_Name: Settings
  m_EditorClassIdentifier: 
  TotalMessagesSubmitted: 0
  TotalMessagesFailed: 0
  DesignMessagesSubmitted: 0
  DesignMessagesFailed: 0
  QualityMessagesSubmitted: 0
  QualityMessagesFailed: 0
  ErrorMessagesSubmitted: 0
  ErrorMessagesFailed: 0
  BusinessMessagesSubmitted: 0
  BusinessMessagesFailed: 0
  UserMessagesSubmitted: 0
  UserMessagesFailed: 0
  CustomArea: 
  gameKey:
  - d35ce49c2eb18193fb6577f472d2fb92
  secretKey:
  - e2c45c127e99af7209999c9b6f7991707e24b154
  Build:
  - 0.1.1
  SelectedPlatformStudio:
  - PGR COB
  SelectedPlatformGame:
  - Spirit of Adventure
  SelectedPlatformGameID: 97dc0000
  SelectedStudio: 01000000
  SelectedGame: 01000000
  NewVersion: 5.0.4
  Changes: '5.0.4

    - added missing playmaker actions


    5.0.3

    - fixed playmaker errors


    5.0.2

    - changed log warnings to log errors for when notifying the user about not having
    initialized the SDK before trying to send events


    5.0.1

    - fixed compile error for ios


    5.0.0

    - added command center functionality

    - fixed various bugs'
  SignUpOpen: 0
  StudioName: 
  GameName: PGR COB
  EmailGA: fairstreetmagic@gmail.com
  IntroScreen: 0
  InfoLogEditor: 1
  InfoLogBuild: 1
  VerboseLogBuild: 0
  UseManualSessionHandling: 0
  SendExampleGameDataToMyGame: 0
  InternetConnectivity: 0
  CustomDimensions01: []
  CustomDimensions02: []
  CustomDimensions03: []
  ResourceItemTypes:
  - Money
  - Bonus
  ResourceCurrencies:
  - Coin
  - FireBall
  - FireWall
  LastCreatedGamePlatform: -1
  Platforms: 0b000000
  CurrentInspectorState: 1
  ClosedHints: 
  DisplayHints: 0
  DisplayHintsScrollState: {x: 0, y: 0}
  Logo: {fileID: 2800000, guid: 98df8f9c5678a4e5d964caa1244e8958, type: 3}
  UpdateIcon: {fileID: 2800000, guid: 810bbb19deed24f3cb7b854f9bafde26, type: 3}
  InfoIcon: {fileID: 2800000, guid: 1b4dd779aadd54ac88856975af0d3c0a, type: 3}
  DeleteIcon: {fileID: 2800000, guid: 85a626f1668244d30a4e9f616991a793, type: 3}
  GameIcon: {fileID: 2800000, guid: a9ac7103fc40b4e00923bf8c2cb5d30f, type: 3}
  HomeIcon: {fileID: 2800000, guid: fe7e2ecc9b2fe447bafe90f6395d4709, type: 3}
  InstrumentIcon: {fileID: 2800000, guid: 2ba470b4dffd848c6b267c34770cc63e, type: 3}
  QuestionIcon: {fileID: 2800000, guid: f8ea67e311b0c4b2ea05718e90fd3b5b, type: 3}
  UserIcon: {fileID: 2800000, guid: f49ef75333ff247cfb5dad4dab0d4dac, type: 3}
  AmazonIcon: {fileID: 0}
  GooglePlayIcon: {fileID: 0}
  iosIcon: {fileID: 0}
  macIcon: {fileID: 0}
  windowsPhoneIcon: {fileID: 0}
  UsePlayerSettingsBuildNumber: 0
  SubmitErrors: 1
  MaxErrorCount: 10
  SubmitFpsAverage: 1
  SubmitFpsCritical: 1
  IncludeGooglePlay: 1
  FpsCriticalThreshold: 20
  FpsCirticalSubmitInterval: 1
  PlatformFoldOut: 01
  CustomDimensions01FoldOut: 0
  CustomDimensions02FoldOut: 0
  CustomDimensions03FoldOut: 0
  ResourceItemTypesFoldOut: 1
  ResourceCurrenciesFoldOut: 1
